<svg xmlns="http://www.w3.org/2000/svg" width="36" height="30" viewBox="0 0 36 30">
    <g fill="#000" fill-rule="evenodd" opacity=".05">
        <path d="M12.437 13.643H7.601a2.016 2.016 0 0 1-1.469-.595 1.953 1.953 0 0 1-.605-1.446v-.68c0-1.501.54-2.784 1.62-3.846 1.08-1.063 2.383-1.594 3.909-1.594h1.381c.375 0 .698-.135.972-.404.273-.27.41-.588.41-.956V1.4c0-.368-.137-.687-.41-.957a1.34 1.34 0 0 0-.972-.403h-1.381C9.558.04 8.13.328 6.769.9c-1.36.574-2.537 1.35-3.53 2.328A10.949 10.949 0 0 0 .875 6.704 10.456 10.456 0 0 0 0 10.923v14.962c0 1.134.403 2.097 1.209 2.89.806.794 1.785 1.19 2.937 1.19h8.292c1.151 0 2.13-.396 2.936-1.19.806-.793 1.21-1.756 1.21-2.89v-8.161c0-1.134-.404-2.097-1.21-2.891-.806-.793-1.785-1.19-2.937-1.19zM34.722 14.833c-.806-.793-1.785-1.19-2.936-1.19h-4.837a2.014 2.014 0 0 1-1.468-.595 1.952 1.952 0 0 1-.605-1.446v-.68c0-1.501.54-2.784 1.62-3.846 1.079-1.063 2.381-1.594 3.908-1.594h1.382c.374 0 .698-.135.971-.404.274-.27.41-.588.41-.956V1.4c0-.368-.136-.687-.41-.957a1.34 1.34 0 0 0-.971-.403h-1.382c-1.498 0-2.926.287-4.287.86-1.36.574-2.536 1.35-3.53 2.328a10.944 10.944 0 0 0-2.364 3.475 10.459 10.459 0 0 0-.875 4.219v14.962c0 1.134.403 2.097 1.209 2.89.806.794 1.785 1.19 2.936 1.19h8.292c1.152 0 2.13-.396 2.937-1.19.806-.793 1.208-1.756 1.208-2.89v-8.161c0-1.134-.402-2.097-1.208-2.891z"/>
    </g>
</svg>
