<svg xmlns="http://www.w3.org/2000/svg" width="34" height="36" viewBox="0 0 34 36">
    <path fill="#DDE5EB" fill-rule="evenodd" d="M15.676 1.238C16.005.483 16.685.003 17.426 0c.744.003 1.423.483 1.753 1.238l3.608 8.301c.287.654.833 1.107 1.47 1.213l8.071 1.33c.736.124 1.346.708 1.577 1.51.229.8.037 1.683-.494 2.27l-5.841 6.461c-.459.511-.671 1.245-.56 1.964l1.378 9.123c.124.83-.176 1.673-.774 2.167-.608.494-1.401.562-2.06.169l-7.217-4.307a1.75 1.75 0 0 0-1.82 0l-7.219 4.307c-.658.393-1.454.325-2.057-.169-.598-.497-.9-1.337-.775-2.167l1.378-9.125c.112-.717-.102-1.45-.56-1.962l-5.842-6.461c-.533-.587-.724-1.468-.494-2.27.23-.802.841-1.386 1.577-1.51l8.07-1.33c.638-.106 1.184-.559 1.47-1.213l3.61-8.301z"/>
</svg>
