<?xml version="1.0" encoding="UTF-8"?>
<svg width="14px" height="10px" viewBox="0 0 14 10" version="1.1" xmlns="http://www.w3.org/2000/svg" xmlns:xlink="http://www.w3.org/1999/xlink">
    <!-- Generator: Sketch 52.5 (67469) - http://www.bohemiancoding.com/sketch -->
    <title>Path</title>
    <desc>Created with Sketch.</desc>
    <g id="Symbols" stroke="none" stroke-width="1" fill="none" fill-rule="evenodd">
        <g id="Check" transform="translate(-2.000000, -4.000000)" fill="#FFFFFF">
            <polygon id="Path" points="7 14 2 9.19230769 3.4 7.84615385 7 11.3076923 14.6 4 16 5.34615385"></polygon>
        </g>
    </g>
</svg>