<svg xmlns="http://www.w3.org/2000/svg" width="24" height="24" viewBox="0 0 24 24">
    <g fill="#00AC47" fill-rule="nonzero">
        <path d="M14.4 21.912c-.198.05-.4.093-.6.13a.97.97 0 0 0 .352 1.907c.238-.045.478-.097.713-.156a.97.97 0 0 0-.465-1.881zM21.522 8.918a.966.966 0 0 0 1.217.616.971.971 0 0 0 .612-1.225c-.076-.232-.16-.464-.25-.69a.961.961 0 0 0-1.253-.54.971.971 0 0 0-.536 1.26c.075.19.146.385.21.58zM17.53 20.528c-.17.113-.346.222-.523.324a.973.973 0 0 0-.074 1.632c.297.21.7.242 1.037.048.21-.122.419-.252.621-.387a.973.973 0 0 0 .273-1.343.959.959 0 0 0-1.335-.274zM23.95 11.626a.966.966 0 0 0-1-.93.967.967 0 0 0-.925 1.006c.008.204.01.412.005.616a.97.97 0 0 0 .942.99.966.966 0 0 0 .984-.947c.005-.244.003-.491-.006-.735zM21.365 17.978a.959.959 0 0 0-1.349.193c-.122.164-.25.326-.383.482a.974.974 0 0 0 .18 1.421.959.959 0 0 0 1.287-.164c.158-.186.311-.38.457-.575a.974.974 0 0 0-.192-1.357zM22.78 14.473a.962.962 0 0 0-1.206.635c-.061.195-.129.392-.202.584a.973.973 0 0 0 .557 1.25.96.96 0 0 0 1.243-.56c.087-.228.167-.462.24-.694a.97.97 0 0 0-.631-1.215zM10.197 22.051a9.9 9.9 0 0 1-2.47-.79l-.027-.015a10.494 10.494 0 0 1-.548-.279l-.003-.002a10.264 10.264 0 0 1-.958-.602C1.661 17.15.571 10.827 3.763 6.267a10.04 10.04 0 0 1 2.47-2.474l.035-.024c3.3-2.288 7.78-2.442 11.283-.09L16.8 4.771c-.21.305-.08.527.285.494l3.27-.295a.542.542 0 0 0 .486-.709l-.877-3.183c-.099-.356-.35-.4-.56-.095l-.754 1.097A11.833 11.833 0 0 0 9.933.216c-.308.054-.612.12-.912.196h-.006a11.873 11.873 0 0 0-6.62 4.452l-.041.052a11.416 11.416 0 0 0-.417.604l-.027.047a12.01 12.01 0 0 0-1.898 7.049v.025c.011.243.03.49.056.732l.008.046A11.99 11.99 0 0 0 3.53 20.64l.012.013.004.004c.471.467.983.9 1.535 1.29a11.835 11.835 0 0 0 4.775 2.012.963.963 0 0 0 1.118-.783.969.969 0 0 0-.778-1.125z"/>
        <path d="M11.388 4.26c-.43 0-.78.352-.78.785v7.814l7.101 3.695a.779.779 0 0 0 1.05-.337.786.786 0 0 0-.334-1.057l-6.258-3.256V5.045a.782.782 0 0 0-.779-.784z"/>
    </g>
</svg>
