<svg xmlns="http://www.w3.org/2000/svg" width="18" height="18" viewBox="0 0 18 18">
    <g fill="none" fill-rule="evenodd" transform="translate(-3 -3)">
        <path d="M0 0h24v24H0z"/>
        <rect width="18" height="18" x="3" y="3" fill="#18B770" rx="5"/>
        <path fill="#FFF" fill-rule="nonzero" d="M17.4 11.86c0 2.906-2.373 5.262-5.302 5.262a5.31 5.31 0 0 1-2.563-.655L6.6 17.4l.957-2.823a5.206 5.206 0 0 1-.76-2.716c0-2.906 2.373-5.261 5.301-5.261 2.929 0 5.302 2.355 5.302 5.26zm-5.302-4.422c-2.458 0-4.457 1.984-4.457 4.423 0 .968.315 1.864.849 2.593l-.557 1.643 1.713-.545a4.455 4.455 0 0 0 2.452.732c2.458 0 4.458-1.984 4.458-4.423s-2-4.423-4.458-4.423zm2.677 5.635c-.032-.054-.119-.086-.249-.15-.13-.065-.769-.377-.888-.42-.119-.043-.206-.065-.292.064-.087.13-.336.42-.412.506-.076.086-.151.097-.281.032-.13-.064-.549-.2-1.045-.64a3.888 3.888 0 0 1-.723-.893c-.076-.129-.008-.199.057-.263.058-.058.13-.15.195-.226.065-.075.086-.129.13-.215.043-.086.021-.161-.011-.226-.033-.064-.293-.699-.401-.957-.108-.258-.217-.215-.292-.215-.076 0-.163-.01-.25-.01a.48.48 0 0 0-.346.16c-.12.13-.455.442-.455 1.076 0 .635.466 1.248.53 1.334.066.086.9 1.43 2.22 1.946 1.322.517 1.322.344 1.56.323.238-.022.769-.312.878-.613.108-.302.108-.56.075-.613z"/>
    </g>
</svg>
